﻿MemberID,ClaimType,ReceivedDate,StatementFromDate,StatementThroughDate
00C0055370,Universal-AI,2/18/2020,2/18/2019,2/20/2019
10010081,Universal-CI,2/10/2020,10/20/2019,10/22/2019
10010081,Universal-CI,2/12/2020,10/23/2019,10/25/2019
10010081,Universal-CI,2/14/2020,10/26/2019,10/28/2019
900013115R,Physician,1/30/2020,1/22/2019,1/24/2019
900013115R,Universal,1/23/2020,12/26/2019,12/28/2019
1111463,Universal,1/24/2020,1/15/2019,1/17/2019
900013115R,Hospital In-patient,1/28/2020,1/23/2019,1/25/2019
900013115R,Hospital Out-patient,1/28/2020,1/8/2019,1/8/2019
900013115R,Dental,1/29/2020,3/20/2019,3/22/2019
900013115R,Dental,1/29/2020,3/20/2019,3/22/2019
