﻿MemberID,ClaimType,ReceivedDate,StatementFromDate,StatementThroughDate
900013115R,Hospital In-patient,3/19/2020,4/11/2019,4/13/2019
900013115R,Hospital Out-patient,1/28/2020,1/8/2019,1/8/2019
900013115R,Dental,1/29/2020,3/20/2019,3/22/2019
900013115R,Dental,1/29/2020,3/20/2019,3/22/2019
