MemberID,Type,GroupNumber,Account,DateAction,AdjustmentReason,TerminationReason,BillingAdjustmentReason,UserID
PA01129510,Reinstatement,PM - PECINOUSKY GROUP,100 - PECINOUSKY GROUP,Reinstate Coverage,Group reinstatement,NA,NA,NA
PA01129510,Termination,PM - PECINOUSKY GROUP,100 - PECINOUSKY GROUP,NA,NA,Member Request,Account termination,x7047
PA01129510,Reinstatement,PM - PECINOUSKY GROUP,100 - PECINOUSKY GROUP,Reinstate Coverage,Group reinstatement,NA,NA,NA
PA01129510,Termination,PM - PECINOUSKY GROUP,100 - PECINOUSKY GROUP,NA,NA,Member Request,Account termination,x7047
PA01129510,Reinstatement,PM - PECINOUSKY GROUP,100 - PECINOUSKY GROUP,Reinstate Coverage,Group reinstatement,NA,NA,NA
PA01129510,Termination,PM - PECINOUSKY GROUP,100 - PECINOUSKY GROUP,NA,NA,Member Request,Account termination,x7047
PA01129510,Reinstatement,PM - PECINOUSKY GROUP,100 - PECINOUSKY GROUP,Reinstate Coverage,Group reinstatement,NA,NA,NA
PA01129510,Termination,PM - PECINOUSKY GROUP,100 - PECINOUSKY GROUP,NA,NA,Member Request,Account termination,x7047
