"SessionDate","SessionDate1","SessionDate2","SessionDate3","PolicyNumber","ClassCode","TotalInterest","RequestType","MaxAccFundVal","MaxAvailAmt","PartialAmount","RequestSurrAmt","FirstName","LastName","ClientName","IDNumber","SurCharges","NetSurAmt","TaxWitholdingAmt","AmountToOwner","AmountToOwner1","Federal","State","FederalStateCalcMethod","IssueStateCountry","CashWithApplication","RequestedPremium","EffectiveDate","PAymentFrequency","PaymentMethod","TaxQuaDesc","TaxWitholding","AgentNumber","BirthSate","DateOfBirth","AddressOne","AddressCity","AddressState","AddressZipCode","BenefitPlan","Units","GLWB","GDB","Gender"
"1/15/2019","6/1/2019","2/14/2019","2/15/2019","TRNTSB66","T1","1,000.00","Gross","9,084.19","9,084.19","908.41","6,000.00","TRNTSB48","TRNTSB48","TRNTSB48, TRNTSB48","950000009","356.41","5,643.59","-900.00","4,743.59","4,743.59","600.00","300.00","Tax Withholding Method from Policy Contract","Missouri US","10,000.00","10,000.00","1/15/2019","Annual","No Notice","TAX QUALIFIED","Voluntary Withholding","A13000000","Missouri US","1/1/1979","2300 N Airport Blvd","Springfield","Missouri US","65802","SD402A - Copy of TM402A except w/ GDB & GWB supps","200","N","Y","Male"
"1/15/2019","6/1/2019","2/14/2019","2/15/2019","TRNTNI20","T1","1,000.00","Gross","9,084.19","9,084.19","908.41","6,000.00","TRNTNI5","TRNTNI5","TRNTNI5, TRNTNI5","980000005","356.41","5,643.59","-900.00","4,743.59","4,743.59","600.00","300.00","Specified Amount and/or Percent","Missouri US","10,000.00","10,000.00","1/15/2019","Annual","No Notice","TAX QUALIFIED","No Withholding","A13000000","Missouri US","1/1/1979","2300 N Airport Blvd","Springfield","Missouri US","65802","SD402A - Copy of TM402A except w/ GDB & GWB supps","200","N","Y","Male"
"1/15/2019","6/1/2019","2/14/2019","2/15/2019","TRNTNL19","T1","1,000.00","Gross","9,084.19","9,084.19","908.41","6,000.00","TRNTNL3","TRNTNL3","TRNTNL3, TRNTNL3","911000003","356.41","5,643.59","-900.00","4,743.59","4,743.59","600.00","300.00","Specified Amount and/or Percent","Missouri US","10,000.00","10,000.00","1/15/2019","Annual","No Notice","TAX QUALIFIED","No Withholding","A13000000","Missouri US","1/1/1979","2300 N Airport Blvd","Springfield","Missouri US","65802","SD402A - Copy of TM402A except w/ GDB & GWB supps","200","N","Y","Male"
"1/15/2019","6/1/2019","2/14/2019","2/15/2019","TRNTNB54","T1","1,000.00","Net Before Withholding","9,084.19","9,084.19","908.41","5,643.59","TRNTNB40","TRNTNB40","TRNTNB40, TRNTNB40","960000007","356.41","5,643.59","-900.00","4,743.59","4,743.59","600.00","300.00","Tax Withholding Method from Policy Contract","Missouri US","10,000.00","10,000.00","1/15/2019","Annual","No Notice","TAX QUALIFIED","Voluntary Withholding","A13000000","Missouri US","1/1/1979","2300 N Airport Blvd","Springfield","Missouri US","65802","SD402A - Copy of TM402A except w/ GDB & GWB supps","200","N","Y","Male"
"1/15/2019","6/1/2019","2/14/2019","2/15/2019","TRNTNJ15","T1","1,000.00","Net Before Withholding","9,084.19","9,084.19","908.41","5,643.59","TRNTNJ3","TRNTNJ3","TRNTNJ3, TRNTNJ3","990000003","356.41","5,643.59","-900.00","4,743.59","4,743.59","600.00","300.00","Specified Amount and/or Percent","Missouri US","10,000.00","10,000.00","1/15/2019","Annual","No Notice","TAX QUALIFIED","No Withholding","A13000000","Missouri US","1/1/1979","2300 N Airport Blvd","Springfield","Missouri US","65802","SD402A - Copy of TM402A except w/ GDB & GWB supps","200","N","Y","Male"
"1/15/2019","6/1/2019","2/14/2019","2/15/2019","TRNTNM15","T1","1,000.00","Net Before Withholding","9,084.19","9,084.19","908.41","5,643.59","TRNTNM3","TRNTNM3","TRNTNM3, TRNTNM3","912000003","356.41","5,643.59","-900.00","4,743.59","4,743.59","600.00","300.00","Specified Amount and/or Percent","Missouri US","10,000.00","10,000.00","1/15/2019","Annual","No Notice","TAX QUALIFIED","No Withholding","A13000000","Missouri US","1/1/1979","2300 N Airport Blvd","Springfield","Missouri US","65802","SD402A - Copy of TM402A except w/ GDB & GWB supps","200","N","Y","Male"
"1/15/2019","6/1/2019","2/14/2019","2/15/2019","TRNTNC19","T1","1,000.00","Net After Withholding","9,084.19","9,084.19","908.41","4,743.59","TRNTNC6","TRNTNC6","TRNTNC6, TRNTNC6","970000007","356.41","5,643.59","-900.00","4,743.59","4,743.59","600.00","300.00","Tax Withholding Method from Policy Contract","Missouri US","10,000.00","10,000.00","1/15/2019","Annual","No Notice","TAX QUALIFIED","Voluntary Withholding","A13000000","Missouri US","1/1/1979","2300 N Airport Blvd","Springfield","Missouri US","65802","SD402A - Copy of TM402A except w/ GDB & GWB supps","200","N","Y","Male"
"1/15/2019","6/1/2019","2/14/2019","2/15/2019","TRNTNK17","T1","1,000.00","Net After Withholding","9,084.19","9,084.19","908.41","4,743.59","TRNTNK3","TRNTNK3","TRNTNK3, TRNTNK3","999000003","356.41","5,643.59","-900.00","4,743.59","4,743.59","600.00","300.00","Specified Amount and/or Percent","Missouri US","10,000.00","10,000.00","1/15/2019","Annual","No Notice","TAX QUALIFIED","No Withholding","A13000000","Missouri US","1/1/1979","2300 N Airport Blvd","Springfield","Missouri US","65802","SD402A - Copy of TM402A except w/ GDB & GWB supps","200","N","Y","Male"
"1/15/2019","6/1/2019","2/14/2019","2/15/2019","TRNTNX7","T1","1,000.00","Net After Withholding","9,084.19","9,084.19","908.41","4,743.59","TRNTNX0","TRNTNX0","TRNTNX0, TRNTNX0","913000003","356.41","5,643.59","-900.00","4,743.59","4,743.59","600.00","300.00","Specified Amount and/or Percent","Missouri US","10,000.00","10,000.00","1/15/2019","Annual","No Notice","TAX QUALIFIED","No Withholding","A13000000","Missouri US","1/1/1979","2300 N Airport Blvd","Springfield","Missouri US","65802","SD402A - Copy of TM402A except w/ GDB & GWB supps","200","N","Y","Male"
