"SessionDate","SessionDate1","SessionDate2","SessionDate3","PolicyNumber","ClassCode","TotalInterest","RequestType","MaxAccFundVal","MaxAvailAmt","PartialAmount","RequestSurrAmt","FirstName","LastName","ClientName","IDNumber","SurCharges","NetSurAmt","TaxWitholdingAmt","AmountToOwner","Federal","State","AmountToOwnerAfterTax","IssueStateCountry","CashWithApplication","RequestedPremium","EffectiveDate","PAymentFrequency","PaymentMethod","TaxQuaDesc","TaxWitholding","AgentNumber","BirthSate","DateOfBirth","AddressOne","AddressCity","AddressState","AddressZipCode","BenefitPlan","Units","GLWB","GDB","Gender"
"1/15/2019","6/1/2019","2/14/2019","2/15/2019","TRNTNM22","T1","1,000.00","Gross","9,084.19","9,084.19","908.41","6,000.00","TRNTNM18","TRNTNM18","TRNTNM18, TRNTNM18","991000003","356.41","5,643.59","-900.00","5,643.59","600.00","300.00","4,743.59","Missouri US","10,000.00","10,000.00","1/15/2019","Annual","No Notice","TAX QUALIFIED","No Withholding","A13000000","Missouri US","1/1/1979","2300 N Airport Blvd","Springfield","Missouri US","65802","SD402A - Copy of TM402A except w/ GDB & GWB supps","200","N","Y","Male"
"1/15/2019","6/1/2019","2/14/2019","2/15/2019","TRNTNG19","T1","1,000.00","Net Before Withholding","9,084.19","9,084.19","908.41","5,643.59","TRNTNG11","TRNTNG11","TRNTNG11, TRNTNG11","992000003","356.41","5,643.59","-900.00","5,643.59","600.00","300.00","4,743.59","Missouri US","10,000.00","10,000.00","1/15/2019","Annual","No Notice","TAX QUALIFIED","No Withholding","A13000000","Missouri US","1/1/1979","2300 N Airport Blvd","Springfield","Missouri US","65802","SD402A - Copy of TM402A except w/ GDB & GWB supps","200","N","Y","Male"
"1/15/2019","6/1/2019","2/14/2019","2/15/2019","TRNTNH13","T1","1,000.00","Net After Withholding","9,084.19","9,084.19","908.41","4,743.59","TRNTNH3","TRNTNH3","TRNTNH3, TRNTNH3","993000003","356.41","4,743.59","-900.00","4,743.59","600.00","300.00","4,743.59","Missouri US","10,000.00","10,000.00","1/15/2019","Annual","No Notice","TAX QUALIFIED","No Withholding","A13000000","Missouri US","1/1/1979","2300 N Airport Blvd","Springfield","Missouri US","65802","SD402A - Copy of TM402A except w/ GDB & GWB supps","200","N","Y","Male"
