"SessionDate","AutoSessionDate","SessionDateFormat","ToDate","PolicyNumber","ClassCode","IssueStateCountry","Gender","CashWithApplication","EffectiveDate","PAymentFrequency","PaymentMethod","FirstName","LastName","ClientName","IDNumber","TaxQuaDesc","TaxWitholding","AgentNumber","BirthSate","DateOfBirth","AddressOne","AddressCity","AddressState","AddressZipCode","BenefitPlan","RequestedPremium","GLWB","AutoToDate","AutoRefreshThruDate","Frequency","Day","StartDate","EndDate","NextTransferDate","NextTransferDate1","NextTransferDate2"
"1/15/2017","8/30/2017","20180228","1/15/2017","QAINIl251","TB","Missouri US","Male","100000","1/15/2017","Annual","No Notice","TRNTIl1","TRNTIl1","TRNTIl1, TRNTIl1","115000001","NON QUALIFIED","No Withholding","A13000000","Missouri US","1/1/1975","2300 N Airport Blvd","Springfield","Missouri US","65802","ZFV000 - For AutoREbal test ClassCode=TB Profile=TM401","100000","N","8/30/2017","8/30/2017","Semiannual (Every 6 Months)","30","8/30/2017","1/15/2074","8/30/2017","2/28/2018","2/28/2018"
"1/15/2017","1/31/2017","20170430","1/15/2017","QAINIM246","TB","Missouri US","Male","100000","1/15/2017","Annual","No Notice","TRNTIM00","TRNTIM00","TRNTIM00, TRNTIM00","116000000","NON QUALIFIED","No Withholding","A13000000","Missouri US","1/1/1975","2300 N Airport Blvd","Springfield","Missouri US","65802","ZFV000 - For AutoREbal test ClassCode=TB Profile=TM401","100000","N","1/31/2017","1/31/2017","Quarterly (Every January, April, July, October)","31","1/31/2017","1/15/2074","1/31/2017","4/30/2017","4/30/2017"
"1/15/2017","1/31/2017","20170131","1/15/2017","QAININ246","TB","Missouri US","Male","100000","1/15/2017","Annual","No Notice","TRNTIN00","TRNTIN00","TRNTIN00, TRNTIN00","117000000","NON QUALIFIED","No Withholding","A13000000","Missouri US","1/1/1975","2300 N Airport Blvd","Springfield","Missouri US","65802","ZFV000 - For AutoREbal test ClassCode=TB Profile=TM401","100000","N","1/31/2017","1/31/2017","Semiannual (Every January, July)","31","1/31/2017","1/15/2074","1/31/2017","7/31/2017","7/31/2017"
"1/15/2017","3/31/2017","20170630","1/15/2017","QAINIO247","TB","Missouri US","Male","100000","1/15/2017","Annual","No Notice","TRNTIO00","TRNTIO00","TRNTIO00, TRNTIO00","118000000","NON QUALIFIED","No Withholding","A13000000","Missouri US","1/1/1975","2300 N Airport Blvd","Springfield","Missouri US","65802","ZFV000 - For AutoREbal test ClassCode=TB Profile=TM401","100000","N","3/31/2017","3/31/2017","Quarterly (Every 3 Months)","31","3/31/2017","1/15/2074","3/31/2017","6/30/2017","9/30/2017"
"1/15/2017","2/15/2017","20170331","1/15/2017","QAINIP253","TB","Missouri US","Male","100000","1/15/2017","Annual","No Notice","TRNTIP00","TRNTIP00","TRNTIP00, TRNTIP00","119000000","NON QUALIFIED","No Withholding","A13000000","Missouri US","1/1/1975","2300 N Airport Blvd","Springfield","Missouri US","65802","ZFV000 - For AutoREbal test ClassCode=TB Profile=TM401","100000","N","2/15/2017","2/15/2017","Monthly","31","3/31/2017","1/15/2074","3/31/2017","4/30/2017","4/30/2017"
